{ "compressionlevel":-1,
 "height":8,
 "infinite":false,
 "layers":[
        {
         "data":[31, 31, 31, 0, 0, 0, 15, 30, 0, 0, 0, 0, 0, 2, 2, 2, 0, 0, 0, 0, 10, 0, 0, 0, 0, 0, 0, 2, 2, 2, 0, 0, 0, 0, 10, 0, 0, 0, 0, 0, 0, 2, 2, 2, 0, 0, 0, 0, 29, 0, 0, 0, 0, 0, 0, 30, 2, 2, 2, 2, 2, 2, 2, 2],
         "height":8,
         "id":6,
         "name":"Specials",
         "opacity":1,
         "type":"tilelayer",
         "visible":true,
         "width":8,
         "x":0,
         "y":0
        }, 
        {
         "data":[0, 0, 0, 0, 0, 0, 0, 0, 0, 0, 0, 0, 0, 0, 0, 0, 0, 0, 0, 0, 36, 0, 0, 0, 0, 0, 0, 0, 0, 0, 0, 0, 0, 0, 33, 0, 0, 0, 0, 0, 0, 0, 0, 0, 0, 0, 0, 0, 34, 0, 33, 0, 34, 0, 36, 0, 0, 0, 0, 0, 0, 0, 0, 0],
         "height":8,
         "id":4,
         "name":"Background",
         "opacity":1,
         "type":"tilelayer",
         "visible":true,
         "width":8,
         "x":0,
         "y":0
        }],
 "nextlayerid":8,
 "nextobjectid":1,
 "orientation":"orthogonal",
 "renderorder":"left-up",
 "tiledversion":"1.7.2",
 "tileheight":64,
 "tilesets":[
        {
         "firstgid":1,
         "source":"..\/tiled\/specials.tsx"
        }, 
        {
         "firstgid":33,
         "source":"..\/tiled\/spritesheet_ground.tsx"
        }],
 "tilewidth":64,
 "type":"map",
 "version":"1.6",
 "width":8
}